<?xml version="1.0" encoding="UTF-8" standalone="no"?>
<!-- Created with Inkscape (http://www.inkscape.org/) -->

<svg
   xmlns:dc="http://purl.org/dc/elements/1.1/"
   xmlns:cc="http://creativecommons.org/ns#"
   xmlns:rdf="http://www.w3.org/1999/02/22-rdf-syntax-ns#"
   xmlns:svg="http://www.w3.org/2000/svg"
   xmlns="http://www.w3.org/2000/svg"
   xmlns:xlink="http://www.w3.org/1999/xlink"
   xmlns:sodipodi="http://sodipodi.sourceforge.net/DTD/sodipodi-0.dtd"
   xmlns:inkscape="http://www.inkscape.org/namespaces/inkscape"
   width="100mm"
   height="70mm"
   viewBox="0 0 100 70"
   version="1.1"
   id="svg5944"
   inkscape:version="0.92.4 (5da689c313, 2019-01-14)"
   sodipodi:docname="triple_union_cano_sats.svg">
  <defs
     id="defs5938">
    <linearGradient
       gradientTransform="matrix(0.88367614,0,0,0.88504699,-5.907311,40.531135)"
       inkscape:collect="always"
       xlink:href="#linearGradient4736"
       id="linearGradient4730"
       gradientUnits="userSpaceOnUse"
       x1="59.719215"
       y1="14.773782"
       x2="60.935883"
       y2="127.15653"
       spreadMethod="reflect" />
    <linearGradient
       id="linearGradient4736"
       inkscape:collect="always">
      <stop
         id="stop4732"
         offset="0"
         style="stop-color:#0669b2;stop-opacity:1;" />
      <stop
         style="stop-color:#00779f;stop-opacity:1"
         offset="0.5"
         id="stop4738" />
      <stop
         id="stop4734"
         offset="1"
         style="stop-color:#00779f;stop-opacity:1" />
    </linearGradient>
  </defs>
  <sodipodi:namedview
     id="base"
     pagecolor="#ffffff"
     bordercolor="#666666"
     borderopacity="1.0"
     inkscape:pageopacity="0.0"
     inkscape:pageshadow="2"
     inkscape:zoom="0.7"
     inkscape:cx="-16.929602"
     inkscape:cy="335.62296"
     inkscape:document-units="mm"
     inkscape:current-layer="layer1"
     showgrid="false"
     inkscape:window-width="1366"
     inkscape:window-height="705"
     inkscape:window-x="-8"
     inkscape:window-y="79"
     inkscape:window-maximized="1" />
  <metadata
     id="metadata5941">
    <rdf:RDF>
      <cc:Work
         rdf:about="">
        <dc:format>image/svg+xml</dc:format>
        <dc:type
           rdf:resource="http://purl.org/dc/dcmitype/StillImage" />
        <dc:title></dc:title>
      </cc:Work>
    </rdf:RDF>
  </metadata>
  <g
     inkscape:label="Camada 1"
     inkscape:groupmode="layer"
     id="layer1"
     transform="translate(0,-227)">
    <path
       inkscape:connector-curvature="0"
       id="path4658"
       d="m 0,227.00003 v 38.72152 h 4.342306 v -2.34168 h 26.92102 v 29.27108 H 28.925269 V 297 H 67.58682 v -4.34905 h -2.25495 v -29.27108 h 30.32582 v 2.34168 H 100 v -38.72152 h -4.34231 v 2.25708 c -30.64071,-0.13609 -64.140422,-0.009 -91.315384,8.9e-4 V 227 Z"
       style="opacity:1;vector-effect:none;fill:url(#linearGradient4730);fill-opacity:1;stroke:none;stroke-width:0.44218066;stroke-linecap:round;stroke-linejoin:round;stroke-miterlimit:0;stroke-dasharray:none;stroke-dashoffset:0;stroke-opacity:1;paint-order:stroke fill markers"
       inkscape:label="triple_union" />
  </g>
</svg>
